R: Tidyverse
…
Ensemble de packages, appels par tidyverse

Donnes rectangulaires

Modle du data frame : une ligne par observation, une colonne par attribut.

Dataframe optimis : tibble

Documentation : vignette("tibble", package="tibble")

ggplot2::diamonds

## # A tibble: 53,940 x 10
##   carat cut   color clarity depth table price
##   <dbl> <ord> <ord> <ord>   <dbl> <dbl> <int>
## 1 0.23  Ideal E     SI2      61.5    55   326
## 2 0.21  Prem~ E     SI1      59.8    61   326
## 3 0.23  Good  E     VS1      56.9    65   327
## 4 0.290 Prem~ I     VS2      62.4    58   334
## 5 0.31  Good  J     SI2      63.3    58   335
## # ... with 53,935 more rows, and 3 more
## #   variables: x <dbl>, y <dbl>, z <dbl>
…
Paracou6 %>% select(SubPlot:Yfield, Family:Species, 
    CircCorr) %>% ncol

## [1] 11

Remarquer : ncol() est une fonction de base, pas du tidyverse.

Ajouter des variables calcules (mutate)

Des colonnes sont ajoutes au tibble

(Paracou6Taille <- Paracou6 %>% select(idTree, CircCorr) %>% 
    mutate(Diametre = CircCorr/pi))

## # A tibble: 3,620 x 3
##   idTree CircCorr Diametre
##    <int>    <dbl>    <dbl>
## 1 100654     62       19.7
## 2 100655     44       14.0
## 3 100656     55.0     17.5
## 4 100657     43.5     13.8
## 5 100658     53.5     17.0
## # ... with 3,615 more rows

Remarquer : les parenthses pour print()

Trier les lignes (arrange)

Afficher les plus gros arbres de la parcelle :

Paracou6Taille %>% arrange(desc(CircCorr))

## # A tibble: 3,620 x 3
##   idTree CircCorr Diametre
##    <int>    <dbl>    <dbl>
## 1 104455     318     101. 
## 2 103939     317     101. 
## 3 102249     300.     95.3
## 4 102086     290      92.3
## 5 100904     288.     91.8
## # ... with 3,615 more rows

Regrouper et rsumer

Quel est le diamtre moyen des arbres par famille ?

Paracou6 %>% group_by(Family) %>% summarise(Dmean = mean(CircCorr)/pi, 
    NbTrees = length(idTree)) %>% arrange(desc(Dmean))

## `summarise()` ungrouping output (override with `.groups` argument)

## # A tibble: 51 x 3
##   Family         Dmean NbTrees
##   <chr>          <dbl>   <int>
## 1 Vochysiaceae    49.2      11
## 2 Combretaceae    48.4       2
## 3 Phyllanthaceae  41.9       3
## 4 Humiriaceae     38.6      20
## 5 Goupiaceae      37.4      19
## # ... with 46 more rows
…
